<?xml version="1.0" encoding="iso-8859-1"?>
<!-- Generator: Adobe Illustrator 18.1.1, SVG Export Plug-In . SVG Version: 6.00 Build 0)  -->
<svg version="1.1" id="Capa_1" xmlns="http://www.w3.org/2000/svg" xmlns:xlink="http://www.w3.org/1999/xlink" x="0px" y="0px"
	 viewBox="0 0 27.088 27.088" style="enable-background:new 0 0 27.088 27.088;" xml:space="preserve">
<g>
	<g id="c170_calculator">
		<path d="M22.08,0c2.021,0,3.657,1.755,3.657,3.916v19.26c0,2.161-1.637,3.912-3.657,3.912H5.008c-2.022,0-3.657-1.751-3.657-3.912
			V3.916C1.351,1.755,2.986,0,5.008,0H22.08 M22.08,1.959H5.008c-1.009,0-1.828,0.876-1.828,1.957v19.26
			c0,1.078,0.819,1.956,1.828,1.956H22.08c1.007,0,1.826-0.878,1.826-1.956V3.916C23.907,2.835,23.087,1.959,22.08,1.959
			L22.08,1.959z M5.461,2.701c-0.933,0-1.449,0.514-1.449,1.271v4.991c0,0.484,0.223,1.044,1.151,1.044h16.89
			c0.929,0,1.021-0.574,1.021-0.914v-5c0-0.729-0.272-1.393-1.203-1.393L5.461,2.701L5.461,2.701z M5.461,10.933
			c-0.551,0-1.171-0.026-1.171,1.092v3.871c0,0.885,0.236,1.312,1.042,1.312h6.107c1.143,0,1.04-0.731,1.04-1.178v-3.902
			c0-0.937-0.312-1.194-0.989-1.194H5.461V10.933z M15.326,11.053c-0.551,0-1.172,0.118-1.172,1.007v10.711
			c0,1.226,0.232,1.322,1.04,1.322h6.43c0.606,0,0.72,0.059,0.72-0.873V12.484c0-1.184-0.311-1.432-0.984-1.432h-6.034V11.053z
			 M5.4,18.102c-0.551,0-1.169-0.025-1.169,1.094v3.873c0,0.884,0.236,1.312,1.038,1.312h6.11c1.144,0,1.038-0.735,1.038-1.183V19.3
			c0-0.937-0.308-1.197-0.984-1.197L5.4,18.102L5.4,18.102z M16.742,5.574v1.705c0,0.387-0.021,0.668-0.064,0.846
			c-0.041,0.177-0.127,0.341-0.26,0.493c-0.134,0.156-0.295,0.267-0.481,0.333c-0.188,0.067-0.396,0.101-0.627,0.101
			c-0.304,0-0.559-0.033-0.76-0.104c-0.204-0.071-0.363-0.181-0.484-0.33c-0.118-0.151-0.207-0.308-0.255-0.474
			c-0.05-0.164-0.073-0.426-0.073-0.785V5.574c0-0.467,0.039-0.821,0.119-1.053c0.079-0.235,0.242-0.423,0.481-0.562
			c0.24-0.142,0.534-0.212,0.877-0.212c0.278,0,0.532,0.048,0.751,0.146s0.384,0.22,0.495,0.359c0.109,0.14,0.184,0.301,0.221,0.475
			C16.723,4.904,16.742,5.188,16.742,5.574z M16.047,5.077c0-0.295-0.046-0.48-0.144-0.554c-0.1-0.075-0.326-0.111-0.684-0.111
			c-0.354,0-0.591,0.038-0.702,0.114c-0.111,0.081-0.169,0.264-0.169,0.551V7.79c0,0.322,0.054,0.518,0.155,0.583
			c0.107,0.069,0.336,0.103,0.688,0.103c0.351,0,0.583-0.041,0.696-0.118c0.107-0.078,0.159-0.254,0.159-0.527L16.047,5.077
			L16.047,5.077z M21.16,5.574v1.705c0,0.387-0.021,0.668-0.065,0.846c-0.042,0.177-0.125,0.341-0.261,0.493
			c-0.133,0.156-0.292,0.267-0.48,0.333c-0.186,0.067-0.396,0.101-0.627,0.101c-0.304,0-0.561-0.033-0.758-0.104
			c-0.204-0.071-0.361-0.181-0.485-0.33C18.365,8.467,18.28,8.31,18.23,8.144c-0.055-0.165-0.079-0.426-0.079-0.786V5.574
			c0-0.467,0.04-0.821,0.124-1.053c0.081-0.235,0.242-0.423,0.48-0.562c0.241-0.142,0.533-0.212,0.877-0.212
			c0.281,0,0.531,0.048,0.748,0.146c0.223,0.098,0.388,0.22,0.497,0.359c0.109,0.139,0.184,0.301,0.225,0.475
			C21.14,4.904,21.16,5.188,21.16,5.574z M20.466,5.077c0-0.295-0.05-0.48-0.147-0.554c-0.096-0.075-0.326-0.111-0.687-0.111
			c-0.35,0-0.584,0.038-0.695,0.114c-0.111,0.081-0.171,0.264-0.171,0.551V7.79c0,0.322,0.054,0.518,0.156,0.583
			c0.109,0.069,0.337,0.103,0.688,0.103c0.35,0,0.581-0.041,0.692-0.118c0.109-0.078,0.163-0.254,0.163-0.527L20.466,5.077
			L20.466,5.077z M10.832,14.971h-1.75v1.791h-1.52v-1.791H5.788V13.45h1.774v-1.738h1.521v1.738h1.75v1.521H10.832z M10.676,22.089
			H6.1v-1.737h4.576C10.676,20.352,10.676,22.089,10.676,22.089z M20.438,16.521h-4.574v-1.736h4.574V16.521z M20.478,19.424h-4.572
			v-1.737h4.572V19.424z"/>
	</g>
	<g id="Capa_1_175_">
	</g>
</g>
<g>
</g>
<g>
</g>
<g>
</g>
<g>
</g>
<g>
</g>
<g>
</g>
<g>
</g>
<g>
</g>
<g>
</g>
<g>
</g>
<g>
</g>
<g>
</g>
<g>
</g>
<g>
</g>
<g>
</g>
</svg>
